…
    ## The following objects are masked from 'package:ggplot2':
    ## 
    ##     %+%, alpha

What is mean total number of steps taken per day?
=================================================

1.  Calculate total number of steps taken per day.

<!-- -->

    (totalsteps <- summarise(group_by(activity1, date), sum(steps), mean(steps)))

    ## # A tibble: 53 × 3
    ##          date `sum(steps)` `mean(steps)`
    ##        <fctr>        <int>         <dbl>
    ## 1  2012-10-02          126       0.43750
    ## 2  2012-10-03        11352      39.41667
    ## 3  2012-10-04        12116      42.06944
    ## 4  2012-10-05        13294      46.15972
    ## 5  2012-10-06        15420      53.54167
    ## 6  2012-10-07        11015      38.24653
    ## 7  2012-10-09        12811      44.48264
    ## 8  2012-10-10         9900      34.37500
    ## 9  2012-10-11        10304      35.77778
    ## 10 2012-10-12        17382      60.35417
    ## # ... with 43 more rows
…
2.filling in all of the missing values with 'mean(steps)' and create new
dataset newact , repeat meansteps 61 times and fill in them to original
dataset$steps in which steps is NA

    newsteps <- (rep(summarise(group_by(activity1, interval), mean(steps))$'mean(steps)', times = 61))

    newact <- activity
    newact$steps[is.na(newact$steps)] <- newsteps[is.na(newact$steps)]


    (totalsteps2 <- summarise(group_by(newact, date), sum(steps), mean(steps)))

    ## # A tibble: 61 × 3
    ##          date `sum(steps)` `mean(steps)`
    ##        <fctr>        <dbl>         <dbl>
    ## 1  2012-10-01     10766.19      37.38260
    ## 2  2012-10-02       126.00       0.43750
    ## 3  2012-10-03     11352.00      39.41667
    ## 4  2012-10-04     12116.00      42.06944
    ## 5  2012-10-05     13294.00      46.15972
    ## 6  2012-10-06     15420.00      53.54167
    ## 7  2012-10-07     11015.00      38.24653
    ## 8  2012-10-08     10766.19      37.38260
    ## 9  2012-10-09     12811.00      44.48264
    ## 10 2012-10-10      9900.00      34.37500
    ## # ... with 51 more rows
…
